[gd_scene load_steps=5 format=3 uid="uid://clecdfrws6o2"]

[ext_resource type="Script" path="res://ProjectileA.gd" id="1_x0svo"]
[ext_resource type="Texture2D" uid="uid://hgfrtbg5ukxc" path="res://Projectile/projectile.png" id="2_bkixc"]

[sub_resource type="CircleShape2D" id="CircleShape2D_433v8"]
radius = 8.0

[sub_resource type="SpriteFrames" id="SpriteFrames_r4esi"]
animations = [{
"frames": [ExtResource("2_bkixc")],
"loop": true,
"name": &"default",
"speed": 5.0
}]

[node name="ProjectileA" type="Area2D"]
position = Vector2(38, -36)
scale = Vector2(0.33, 0.33)
script = ExtResource("1_x0svo")

[node name="CollisionShape2D" type="CollisionShape2D" parent="."]
shape = SubResource("CircleShape2D_433v8")

[node name="AnimatedSprite2D" type="AnimatedSprite2D" parent="."]
frames = SubResource("SpriteFrames_r4esi")

[connection signal="body_entered" from="." to="." method="_on_body_entered"]
