; Engine configuration file.
; It's best edited using the editor UI and not directly,
; since the parameters that go here are not all obvious.
;
; Format:
;   [section] ; section goes between []
;   param=value ; assign values to parameters

config_version=5

_global_script_classes=[{
"base": "CharacterBody2D",
"class": &"Player",
"language": &"GDScript",
"path": "res://Player.gd"
}, {
"base": "Area2D",
"class": &"ProjectileA",
"language": &"GDScript",
"path": "res://ProjectileA.gd"
}]
_global_script_class_icons={
"Player": "",
"ProjectileA": ""
}

[application]

config/name="2D-cover-shooter"
run/main_scene="res://game.tscn"
config/features=PackedStringArray("4.0", "GL Compatibility")
config/icon="res://icon.svg"

[input]

nord={
"deadzone": 0.5,
"events": [Object(InputEventKey,"resource_local_to_scene":false,"resource_name":"","device":0,"window_id":0,"alt_pressed":false,"shift_pressed":false,"ctrl_pressed":false,"meta_pressed":false,"pressed":false,"keycode":0,"physical_keycode":87,"unicode":0,"echo":false,"script":null)
]
}
south={
"deadzone": 0.5,
"events": [Object(InputEventKey,"resource_local_to_scene":false,"resource_name":"","device":0,"window_id":0,"alt_pressed":false,"shift_pressed":false,"ctrl_pressed":false,"meta_pressed":false,"pressed":false,"keycode":0,"physical_keycode":83,"unicode":0,"echo":false,"script":null)
]
}
est={
"deadzone": 0.5,
"events": [Object(InputEventKey,"resource_local_to_scene":false,"resource_name":"","device":0,"window_id":0,"alt_pressed":false,"shift_pressed":false,"ctrl_pressed":false,"meta_pressed":false,"pressed":false,"keycode":0,"physical_keycode":68,"unicode":0,"echo":false,"script":null)
]
}
west={
"deadzone": 0.5,
"events": [Object(InputEventKey,"resource_local_to_scene":false,"resource_name":"","device":0,"window_id":0,"alt_pressed":false,"shift_pressed":false,"ctrl_pressed":false,"meta_pressed":false,"pressed":false,"keycode":0,"physical_keycode":65,"unicode":0,"echo":false,"script":null)
]
}
hold={
"deadzone": 0.5,
"events": [Object(InputEventKey,"resource_local_to_scene":false,"resource_name":"","device":0,"window_id":0,"alt_pressed":false,"shift_pressed":false,"ctrl_pressed":false,"meta_pressed":false,"pressed":false,"keycode":0,"physical_keycode":32,"unicode":0,"echo":false,"script":null)
]
}
fire={
"deadzone": 0.5,
"events": [Object(InputEventMouseButton,"resource_local_to_scene":false,"resource_name":"","device":-1,"window_id":0,"alt_pressed":false,"shift_pressed":false,"ctrl_pressed":false,"meta_pressed":false,"button_mask":0,"position":Vector2(0, 0),"global_position":Vector2(0, 0),"factor":1.0,"button_index":1,"pressed":false,"double_click":false,"script":null)
]
}

[rendering]

renderer/rendering_method="gl_compatibility"
